FPGA_Part/Own_IR_transmitter.sim/sim_1/behav/xsim/simulate.log
Vivado Simulator v2020.2.2
Time resolution is 1 ps
Time =                    0 ns, State = 0, IR_OUT = x
Time =                 4000 ns, State = 0, IR_OUT = 0
Time =              1004000 ns, State = 1, IR_OUT = 0
Time =             13156000 ns, State = 1, IR_OUT = 1
Time =             26308000 ns, State = 1, IR_OUT = 0
Time =             39460000 ns, State = 1, IR_OUT = 1
Time =             52612000 ns, State = 1, IR_OUT = 0
Time =             65764000 ns, State = 1, IR_OUT = 1
Time =             78916000 ns, State = 1, IR_OUT = 0
Time =             92068000 ns, State = 1, IR_OUT = 1
Time =            105220000 ns, State = 1, IR_OUT = 0
Time =            118372000 ns, State = 1, IR_OUT = 1
Time =            131524000 ns, State = 1, IR_OUT = 0
Time =            144676000 ns, State = 1, IR_OUT = 1
Time =            157828000 ns, State = 1, IR_OUT = 0
Time =            170980000 ns, State = 1, IR_OUT = 1
Time =            184132000 ns, State = 1, IR_OUT = 0
Time =            197284000 ns, State = 1, IR_OUT = 1
Time =            210436000 ns, State = 1, IR_OUT = 0
Time =            223588000 ns, State = 1, IR_OUT = 1
Time =            236740000 ns, State = 1, IR_OUT = 0
Time =            249892000 ns, State = 1, IR_OUT = 1
Time =            263044000 ns, State = 1, IR_OUT = 0
Time =            276196000 ns, State = 1, IR_OUT = 1
Time =            289348000 ns, State = 1, IR_OUT = 0
Time =            302500000 ns, State = 1, IR_OUT = 1
Time =            315652000 ns, State = 1, IR_OUT = 0
Time =            328804000 ns, State = 1, IR_OUT = 1
Time =            341956000 ns, State = 1, IR_OUT = 0
Time =            355108000 ns, State = 1, IR_OUT = 1
Time =            368260000 ns, State = 1, IR_OUT = 0
Time =            381412000 ns, State = 1, IR_OUT = 1
Time =            394564000 ns, State = 1, IR_OUT = 0
Time =            407716000 ns, State = 1, IR_OUT = 1
Time =            420868000 ns, State = 1, IR_OUT = 0
Time =            434020000 ns, State = 1, IR_OUT = 1
Time =            447172000 ns, State = 1, IR_OUT = 0
Time =            460324000 ns, State = 1, IR_OUT = 1
Time =            473476000 ns, State = 1, IR_OUT = 0
Time =            486628000 ns, State = 1, IR_OUT = 1
Time =            499780000 ns, State = 1, IR_OUT = 0
Time =            512932000 ns, State = 1, IR_OUT = 1
Time =            526084000 ns, State = 1, IR_OUT = 0
Time =            539236000 ns, State = 1, IR_OUT = 1
Time =            552388000 ns, State = 1, IR_OUT = 0
Time =            565540000 ns, State = 1, IR_OUT = 1
Time =            578692000 ns, State = 1, IR_OUT = 0
Time =            591844000 ns, State = 1, IR_OUT = 1
Time =            604996000 ns, State = 1, IR_OUT = 0
Time =            618148000 ns, State = 1, IR_OUT = 1
Time =            631300000 ns, State = 1, IR_OUT = 0
Time =            644452000 ns, State = 1, IR_OUT = 1
Time =            657604000 ns, State = 1, IR_OUT = 0
Time =            670756000 ns, State = 1, IR_OUT = 1
Time =            683908000 ns, State = 1, IR_OUT = 0
Time =            697060000 ns, State = 1, IR_OUT = 1
Time =            710212000 ns, State = 1, IR_OUT = 0
Time =            723364000 ns, State = 1, IR_OUT = 1
Time =            736516000 ns, State = 1, IR_OUT = 0
Time =            749668000 ns, State = 1, IR_OUT = 1
Time =            762820000 ns, State = 1, IR_OUT = 0
Time =            775972000 ns, State = 1, IR_OUT = 1
Time =            789124000 ns, State = 1, IR_OUT = 0
Time =            802276000 ns, State = 1, IR_OUT = 1
Time =            815428000 ns, State = 1, IR_OUT = 0
Time =            828580000 ns, State = 1, IR_OUT = 1
Time =            841732000 ns, State = 1, IR_OUT = 0
Time =            854884000 ns, State = 1, IR_OUT = 1
Time =            868036000 ns, State = 1, IR_OUT = 0
Time =            881188000 ns, State = 1, IR_OUT = 1
Time =            894340000 ns, State = 1, IR_OUT = 0
Time =            907492000 ns, State = 1, IR_OUT = 1
Time =            920644000 ns, State = 1, IR_OUT = 0
Time =            933796000 ns, State = 1, IR_OUT = 1
Time =            946948000 ns, State = 1, IR_OUT = 0
Time =            960100000 ns, State = 1, IR_OUT = 1
Time =            973252000 ns, State = 1, IR_OUT = 0
Time =            986404000 ns, State = 1, IR_OUT = 1
Time =            999556000 ns, State = 1, IR_OUT = 0
Time =           1001012000 ns, State = 2, IR_OUT = 0
Time =           1501020000 ns, State = 3, IR_OUT = 0
Time =           1512484000 ns, State = 3, IR_OUT = 1
Time =           1525636000 ns, State = 3, IR_OUT = 0
Time =           1538788000 ns, State = 3, IR_OUT = 1
Time =           1551940000 ns, State = 3, IR_OUT = 0
Time =           1565092000 ns, State = 3, IR_OUT = 1
Time =           1578244000 ns, State = 3, IR_OUT = 0
Time =           1591396000 ns, State = 3, IR_OUT = 1
Time =           1601028000 ns, State = 4, IR_OUT = 1
Time =           1601036000 ns, State = 4, IR_OUT = 0
Time =           1701036000 ns, State = 3, IR_OUT = 0
Time =           1701052000 ns, State = 3, IR_OUT = 1
Time =           1709764000 ns, State = 3, IR_OUT = 0
Time =           1722916000 ns, State = 3, IR_OUT = 1
Time =           1736068000 ns, State = 3, IR_OUT = 0
Time =           1749220000 ns, State = 3, IR_OUT = 1
Time =           1762372000 ns, State = 3, IR_OUT = 0
Time =           1775524000 ns, State = 3, IR_OUT = 1
Time =           1788676000 ns, State = 3, IR_OUT = 0
Time =           1801044000 ns, State = 4, IR_OUT = 0
Time =           1901052000 ns, State = 3, IR_OUT = 0
Time =           1907044000 ns, State = 3, IR_OUT = 1
Time =           1920196000 ns, State = 3, IR_OUT = 0
Time =           1933348000 ns, State = 3, IR_OUT = 1
Time =           1946500000 ns, State = 3, IR_OUT = 0
Time =           1959652000 ns, State = 3, IR_OUT = 1
Time =           1972804000 ns, State = 3, IR_OUT = 0
Time =           1985956000 ns, State = 3, IR_OUT = 1
Time =           1999108000 ns, State = 3, IR_OUT = 0
Time =           2001060000 ns, State = 4, IR_OUT = 0
Time =           2101068000 ns, State = 3, IR_OUT = 0
Time =           2101084000 ns, State = 3, IR_OUT = 1
Time =           2104324000 ns, State = 3, IR_OUT = 0
Time =           2117476000 ns, State = 3, IR_OUT = 1
Time =           2130628000 ns, State = 3, IR_OUT = 0
Time =           2143780000 ns, State = 3, IR_OUT = 1
Time =           2156932000 ns, State = 3, IR_OUT = 0
Time =           2170084000 ns, State = 3, IR_OUT = 1
Time =           2183236000 ns, State = 3, IR_OUT = 0
Time =           2196388000 ns, State = 3, IR_OUT = 1
Time =           2201076000 ns, State = 4, IR_OUT = 1
Time =           2201084000 ns, State = 4, IR_OUT = 0
Time =           2301084000 ns, State = 3, IR_OUT = 0
Time =           2301604000 ns, State = 3, IR_OUT = 1
Time =           2314756000 ns, State = 3, IR_OUT = 0
Time =           2327908000 ns, State = 3, IR_OUT = 1
Time =           2341060000 ns, State = 3, IR_OUT = 0
Time =           2354212000 ns, State = 3, IR_OUT = 1
Time =           2367364000 ns, State = 3, IR_OUT = 0
Time =           2380516000 ns, State = 3, IR_OUT = 1
Time =           2393668000 ns, State = 3, IR_OUT = 0
Time =           2401092000 ns, State = 4, IR_OUT = 0
Time =           2601100000 ns, State = 3, IR_OUT = 0
Time =           2601116000 ns, State = 3, IR_OUT = 1
Time =           2604100000 ns, State = 3, IR_OUT = 0
Time =           2617252000 ns, State = 3, IR_OUT = 1
Time =           2630404000 ns, State = 3, IR_OUT = 0
Time =           2643556000 ns, State = 3, IR_OUT = 1
Time =           2656708000 ns, State = 3, IR_OUT = 0
Time =           2669860000 ns, State = 3, IR_OUT = 1
Time =           2683012000 ns, State = 3, IR_OUT = 0
Time =           2696164000 ns, State = 3, IR_OUT = 1
Time =           2701108000 ns, State = 4, IR_OUT = 1
Time =           2701116000 ns, State = 4, IR_OUT = 0
Time =           2901116000 ns, State = 3, IR_OUT = 0
Time =           2906596000 ns, State = 3, IR_OUT = 1
Time =           2919748000 ns, State = 3, IR_OUT = 0
Time =           2932900000 ns, State = 3, IR_OUT = 1
Time =           2946052000 ns, State = 3, IR_OUT = 0
Time =           2959204000 ns, State = 3, IR_OUT = 1
Time =           2972356000 ns, State = 3, IR_OUT = 0
Time =           2985508000 ns, State = 3, IR_OUT = 1
Time =           2998660000 ns, State = 3, IR_OUT = 0
Time =           3001124000 ns, State = 4, IR_OUT = 0
Time =           3201132000 ns, State = 3, IR_OUT = 0
Time =           3201148000 ns, State = 3, IR_OUT = 1
Time =           3209092000 ns, State = 3, IR_OUT = 0
Time =           3222244000 ns, State = 3, IR_OUT = 1
Time =           3235396000 ns, State = 3, IR_OUT = 0
Time =           3248548000 ns, State = 3, IR_OUT = 1
Time =           3261700000 ns, State = 3, IR_OUT = 0
Time =           3274852000 ns, State = 3, IR_OUT = 1
Time =           3288004000 ns, State = 3, IR_OUT = 0
Time =           3301140000 ns, State = 4, IR_OUT = 0
Time =           3501148000 ns, State = 5, IR_OUT = 0
Time =           3511588000 ns, State = 5, IR_OUT = 1
Time =           3524740000 ns, State = 5, IR_OUT = 0
Time =           3537892000 ns, State = 5, IR_OUT = 1
Time =           3551044000 ns, State = 5, IR_OUT = 0
Time =           3564196000 ns, State = 5, IR_OUT = 1
Time =           3577348000 ns, State = 5, IR_OUT = 0
Time =           3590500000 ns, State = 5, IR_OUT = 1
Time =           3603652000 ns, State = 5, IR_OUT = 0
Time =           3616804000 ns, State = 5, IR_OUT = 1
Time =           3629956000 ns, State = 5, IR_OUT = 0
Time =           3643108000 ns, State = 5, IR_OUT = 1
Time =           3656260000 ns, State = 5, IR_OUT = 0
Time =           3669412000 ns, State = 5, IR_OUT = 1
Time =           3682564000 ns, State = 5, IR_OUT = 0
Time =           3695716000 ns, State = 5, IR_OUT = 1
Time =           3701156000 ns, State = 6, IR_OUT = 1
Time =           3701164000 ns, State = 6, IR_OUT = 0
